%YAML 1.1
%TAG !u! tag:unity3d.com,2011:
--- !u!221 &22100000
AnimatorOverrideController:
  m_ObjectHideFlags: 0
  m_CorrespondingSourceObject: {fileID: 0}
  m_PrefabInstance: {fileID: 0}
  m_PrefabAsset: {fileID: 0}
  m_Name: HealerLifting
  m_Controller: {fileID: 9100000, guid: 3514cd431240f4247b5f4f6e88358354, type: 2}
  m_Clips:
  - m_OriginalClip: {fileID: -203655887218126122, guid: 8fb0e1e2c9ee785428d229401ea37cdb,
      type: 3}
    m_OverrideClip: {fileID: -203655887218126122, guid: e1650008b89a687468bbcd7869539a5d,
      type: 3}
